{
  "learning_track": [
    {
      "title": "O que você deseja que o jovem aprenda ou reflita nesta trilha?",
      "instructions": "Avaliar impactos da Revolução Industrial nos dias de hoje",
      "question_type": "open",
      "question_for": "LearningTrack"
    },
    {
    	"title": "Quais ações você planeja fazer para que o jovem consiga aprender ou refletir mais sobre o assunto?",
    	"instructions": "Propor oficina de arte com material reciclado e explanar sobre as distinções entre consumo e consumismo.",
    	"question_type": "open",
    	"question_for": "LearningTrack"
    },
    {
      "title": "Pensando no ponto de vista dos jovens, existem diferentes perspectivas que eles podem usar para aprender ou refletir sobre o assunto. Escolha a(s) que você gostaria de trabalhar.",
      "instructions": "",
      "question_type": "multiple_choices",
      "choices": [
        {
          "answer": "Eu (Indivíduo)",
          "index": 0,
          "instructions": "Quanto você pergunta, o que pensa sobre este assunto, está neste primeiro nível."
        },
        {
          "answer": "Nós (Família / Comunidade)",
          "index": 1,
          "instructions": "Quando você pergunta qual o impacto deste item na sua família ou comunidade, está no segundo nível."
        },
        {
          "answer": "Todos Nós (Sociedade / Mundo)",
          "index": 2,
          "instructions": "Quando você pergunta, o que você descobriu sobre isso ao olhar o mundo, terceiro nível."
        }
      ],
      "question_for": "LearningTrack"
    },
    {
      "title": "Em termos gerais, descreva o que você quer que o jovem faça na trilha. Não é necessário detalhar as atividades, você poderá escolhê-las no próximo passo.",
      "instructions": "Participe da oficina de arte, observe a produção da oficina e registre suas percepções sobre consumo na sua comunidade.",
      "question_type": "open",
      "question_for": "LearningTrack"
    }
  ],
  "cycle_planning": [
    {
      "title": "Cenário",
      "instructions": "Exemplo: A comunidade é muito pobre e a fonte de renda vem de subempregos. Não existem muitas experiências de acesso ao mundo industrializado como fonte de emprego mas existe consumo de produtos industrializados",
      "subtitle": "Para começar seu planejamento, observe a realidade onde será feito o seu ciclo de aprendizagem. Você pode usar diferentes técnicas para realizar essa análise. Veja as dicas no vídeo tutorial e insira suas observações abaixo.",
      "question_type": "open",
      "question_for": "CyclePlanning"
    },
    {
      "title": "Questão",
      "subtitle": "Analise as observações do cenário e identifique o tema que deseja trabalhar. Descreva-o claramente aqui para começar seu planejamento.",
      "instructions": "Exemplo: A comunidade é muito pobre e a fonte de renda vem de subempregos. Não existem muitas experiências de acesso ao mundo industrializado como fonte de emprego mas existe consumo de produtos industrializados",
      "question_type": "open",
      "question_for": "CyclePlanning"
    },
    {
      "title": "Oportunidade",
      "subtitle": "Identifique oportunidades que esse tema oferece e liste-as abaixo. Pense em todos os aspectos possíveis, incluindo a realidade do jovem e da comunidade na qual está inserido.",
      "instructions": "Exemplo:\n\t - Diferenciar consumo e consumismo.\n\t - Consumo consciente, alienação ao consumo",
      "question_type": "comma_separated_open",
      "question_for": "CyclePlanning"
    },
    {
      "title": "Seleção",
      "subtitle": "Analise as oportunidades listadas e escolha aquela que pode ser trabalhada e aprofundada no seu ciclo de aprendizagem.",
      "instructions": "Insira aqui todas suas observações sobre a realidade na qual seu ciclo de aprendizagem acontecerá. Você pode usar diferentes técnicas para realizar essa análise. Veja as dicas no vídeo tutorial. Depois defina a questão!",
      "question_type": "comma_separated_open",
      "question_for": "CyclePlanning"
    },
    {
      "title": "Objetivo",
      "subtitle": "Agora, descreva o objetivo do seu Ciclo de Aprendizagem e comece a criar suas trilhas!",
      "instructions": "Exemplo: Ao final deste ciclo de aprendizagem o aluno será capaz de observar o fenômeno revolução industrial e perceber seus impactos nos dias de hoje, em especial relacionados à dimensão consumo e também refletir sobre seus desejos para o futuro.",
      "question_type": "open",
      "question_for": "CyclePlanning"
    }
  ]
}
