{
  "AWSEBDockerrunVersion": 2,
  "volumes": [
    {
      "name": "cdi-api-project",
      "host": {
        "sourcePath": "/var/app/current/"
      }
    },
    {
      "name": "cdi-api-web",
      "host": {
        "sourcePath": ""
      }
    },
    {
      "name": "cdi-api-worker",
      "host": {
        "sourcePath": ""
      }
    }
  ],
  "containerDefinitions": [
    {
      "name": "cdi-api-web",
      "image": "f3rn4nd0s0us4/cdi-api:latest",
      "essential": true,
      "memory": 512,
      "environment": [
        {
          "name": "RACK_ENV",
          "value": "staging"
        }
      ],
      "portMappings": [
        {
          "hostPort": 80,
          "containerPort": 80
        }
      ],
      "mountPoints": [
        {
          "sourceVolume": "cdi-api-project",
          "containerPath": "/app/project",
          "readOnly": true
        },
        {
          "sourceVolume": "cdi-api-web",
          "containerPath": "/app/current"
        }
      ],
      "command": [
        "/app/project/docker/bin/boot-web.sh"
      ]
    },
    {
      "name": "cdi-api-worker",
      "image": "f3rn4nd0s0us4/cdi-api:latest",
      "essential": true,
      "memory": 512,
      "environment": [
        {
          "name": "RACK_ENV",
          "value": "staging"
        }
      ],
      "mountPoints": [
        {
          "sourceVolume": "cdi-api-project",
          "containerPath": "/app/project",
          "readOnly": true
        },
        {
          "sourceVolume": "cdi-api-web",
          "containerPath": "/app/current"
        }
      ],
      "command": [
        "/app/project/docker/bin/boot-worker.sh"
      ]
    }
  ]
}
